{
  "name": "Eggs",
  "base": "Model",
  "http": { "path": "eggs" },
  "properties": {},
  "methods": {
    "greet": {
      "accepts": [{
        "arg": "msg",
        "type": "string",
        "http": {
          "source": "query"
        }
      }],
      "returns": {
        "arg": "greeting",
        "type": "string"
      },
      "http": {
        "verb": "get"
      }
    }
  }
}
